{"offset":10,"next":"https://api.spotify.com/v1/browse/categories/country/playlists?offset=20&limit=10","href":"https://api.spotify.com/v1/browse/categories/country/playlists?offset=10&limit=10","limit":10,"previous":"https://api.spotify.com/v1/browse/categories/country/playlists?offset=0&limit=10","total":82,"items":[{"tracks":{"total":40,"href":"https://api.spotify.com/v1/playlists/37i9dQZF1DXaJXCbmtHVHV/tracks"},"owner":{"id":"spotify","display_name":"Spotify","external_urls":{"spotify":"https://open.spotify.com/user/spotify"},"href":"https://api.spotify.com/v1/users/spotify","uri":"spotify:user:spotify","type":"user"},"uri":"spotify:playlist:37i9dQZF1DXaJXCbmtHVHV","snapshot_id":"MTYwMDcwMzcxOSwwMDAwMDA2MDAwMDAwMTc0YjE2MDY4OTQwMDAwMDE3NDRmOTU3NDk5","external_urls":{"spotify":"https://open.spotify.com/playlist/37i9dQZF1DXaJXCbmtHVHV"},"id":"37i9dQZF1DXaJXCbmtHVHV","href":"https://api.spotify.com/v1/playlists/37i9dQZF1DXaJXCbmtHVHV","images":[{"url":"https://i.scdn.co/image/ab67706f000000032cd0c9714257a326cd60211e"}],"description":"The country Top 40 hits of the week across America! Cover: Morgan Wallen","name":"Big Country","collaborative":false,"type":"playlist"},{"tracks":{"total":135,"href":"https://api.spotify.com/v1/playlists/37i9dQZF1DXaiEFNvQPZrM/tracks"},"owner":{"id":"spotify","display_name":"Spotify","external_urls":{"spotify":"https://open.spotify.com/user/spotify"},"href":"https://api.spotify.com/v1/users/spotify","uri":"spotify:user:spotify","type":"user"},"uri":"spotify:playlist:37i9dQZF1DXaiEFNvQPZrM","snapshot_id":"MTYwMDcyNTA1MywwMDAwMDAwMGQ0MWQ4Y2Q5OGYwMGIyMDRlOTgwMDk5OGVjZjg0Mjdl","external_urls":{"spotify":"https://open.spotify.com/playlist/37i9dQZF1DXaiEFNvQPZrM"},"id":"37i9dQZF1DXaiEFNvQPZrM","href":"https://api.spotify.com/v1/playlists/37i9dQZF1DXaiEFNvQPZrM","images":[{"url":"https://i.scdn.co/image/ab67706f00000003b077ac1477feca2a66e56d19"}],"description":"The 90's was a transitionary decade with Traditional and Crossover music blending together.","name":"Country's Greatest Hits:  The '90s","collaborative":false,"type":"playlist"},{"tracks":{"total":69,"href":"https://api.spotify.com/v1/playlists/37i9dQZF1DX8S0uQvJ4gaa/tracks"},"owner":{"id":"spotify","display_name":"Spotify","external_urls":{"spotify":"https://open.spotify.com/user/spotify"},"href":"https://api.spotify.com/v1/users/spotify","uri":"spotify:user:spotify","type":"user"},"uri":"spotify:playlist:37i9dQZF1DX8S0uQvJ4gaa","snapshot_id":"MTYwMDQ0MTc4MCwwMDAwMDIyMjAwMDAwMTc0YTFjMzg3YjgwMDAwMDE3NDQ1NjFhODYz","external_urls":{"spotify":"https://open.spotify.com/playlist/37i9dQZF1DX8S0uQvJ4gaa"},"id":"37i9dQZF1DX8S0uQvJ4gaa","href":"https://api.spotify.com/v1/playlists/37i9dQZF1DX8S0uQvJ4gaa","images":[{"url":"https://i.scdn.co/image/ab67706f000000038a7ffe707ca3857b5b305399"}],"description":"New Music Discovery is what we're about.  Try it on for size. Cover: Riley Green","name":"New Boots","collaborative":false,"type":"playlist"},{"tracks":{"total":99,"href":"https://api.spotify.com/v1/playlists/37i9dQZF1DX0bUGQdz5BJG/tracks"},"owner":{"id":"spotify","display_name":"Spotify","external_urls":{"spotify":"https://open.spotify.com/user/spotify"},"href":"https://api.spotify.com/v1/users/spotify","uri":"spotify:user:spotify","type":"user"},"uri":"spotify:playlist:37i9dQZF1DX0bUGQdz5BJG","snapshot_id":"MTYwMDQ1OTEzNywwMDAwMDEzNTAwMDAwMTc0YTJjYzYyYzYwMDAwMDE3NDllODE4YTYz","external_urls":{"spotify":"https://open.spotify.com/playlist/37i9dQZF1DX0bUGQdz5BJG"},"id":"37i9dQZF1DX0bUGQdz5BJG","href":"https://api.spotify.com/v1/playlists/37i9dQZF1DX0bUGQdz5BJG","images":[{"url":"https://i.scdn.co/image/ab67706f00000003309cb28f012414ca105f1ee6"}],"description":"Music City must-hears.  Hear tracks from Keith Urban's new album \"The Speed Of Now\" Part 1. \nCover: Tyler Rich","name":"Next From Nashville","collaborative":false,"type":"playlist"},{"tracks":{"total":54,"href":"https://api.spotify.com/v1/playlists/37i9dQZF1DXdgnLr18vPvu/tracks"},"owner":{"id":"spotify","display_name":"Spotify","external_urls":{"spotify":"https://open.spotify.com/user/spotify"},"href":"https://api.spotify.com/v1/users/spotify","uri":"spotify:user:spotify","type":"user"},"uri":"spotify:playlist:37i9dQZF1DXdgnLr18vPvu","snapshot_id":"MTYwMDcyNTA2NCwwMDAwMDAwMGQ0MWQ4Y2Q5OGYwMGIyMDRlOTgwMDk5OGVjZjg0Mjdl","external_urls":{"spotify":"https://open.spotify.com/playlist/37i9dQZF1DXdgnLr18vPvu"},"id":"37i9dQZF1DXdgnLr18vPvu","href":"https://api.spotify.com/v1/playlists/37i9dQZF1DXdgnLr18vPvu","images":[{"url":"https://i.scdn.co/image/ab67706f00000003fbf1a073d8e4001e8e2ac6a4"}],"description":"The right music can make a good tailgate great. So crank up this country collection in the company of good friends and great sporting events.","name":"Tailgate Party","collaborative":false,"type":"playlist"},{"tracks":{"total":62,"href":"https://api.spotify.com/v1/playlists/37i9dQZF1DWYUfsq4hxHWP/tracks"},"owner":{"id":"spotify","display_name":"Spotify","external_urls":{"spotify":"https://open.spotify.com/user/spotify"},"href":"https://api.spotify.com/v1/users/spotify","uri":"spotify:user:spotify","type":"user"},"uri":"spotify:playlist:37i9dQZF1DWYUfsq4hxHWP","snapshot_id":"MTYwMDQ0ODI0MCwwMDAwMDAzYjAwMDAwMTc0YTIyNjFhYTAwMDAwMDE3MjBlYjJhZTE2","external_urls":{"spotify":"https://open.spotify.com/playlist/37i9dQZF1DWYUfsq4hxHWP"},"id":"37i9dQZF1DWYUfsq4hxHWP","href":"https://api.spotify.com/v1/playlists/37i9dQZF1DWYUfsq4hxHWP","images":[{"url":"https://i.scdn.co/image/ab67706f00000003b73a00fb9992d3b6de6d34e2"}],"description":"Fresh Country releases from up and coming artists starting to make noise in music.","name":"Fresh Finds: Country","collaborative":false,"type":"playlist"},{"tracks":{"total":51,"href":"https://api.spotify.com/v1/playlists/37i9dQZF1DX6rVyqO2FaN8/tracks"},"owner":{"id":"spotify","display_name":"Spotify","external_urls":{"spotify":"https://open.spotify.com/user/spotify"},"href":"https://api.spotify.com/v1/users/spotify","uri":"spotify:user:spotify","type":"user"},"uri":"spotify:playlist:37i9dQZF1DX6rVyqO2FaN8","snapshot_id":"MTU5OTgzMDQyNiwwMDAwMDA1MzAwMDAwMTc0N2Q1MzAxYTgwMDAwMDE3NDQ1N2Q1NGE3","external_urls":{"spotify":"https://open.spotify.com/playlist/37i9dQZF1DX6rVyqO2FaN8"},"id":"37i9dQZF1DX6rVyqO2FaN8","href":"https://api.spotify.com/v1/playlists/37i9dQZF1DX6rVyqO2FaN8","images":[{"url":"https://i.scdn.co/image/ab67706f000000036728b92952716119b97a398a"}],"description":"Recent tracks from the Hot Country playlist that are still smokin'.  Cover: Gabby Barrett","name":"Still Hot","collaborative":false,"type":"playlist"},{"tracks":{"total":163,"href":"https://api.spotify.com/v1/playlists/37i9dQZF1DX6RCydf9ytsj/tracks"},"owner":{"id":"spotify","display_name":"Spotify","external_urls":{"spotify":"https://open.spotify.com/user/spotify"},"href":"https://api.spotify.com/v1/users/spotify","uri":"spotify:user:spotify","type":"user"},"uri":"spotify:playlist:37i9dQZF1DX6RCydf9ytsj","snapshot_id":"MTYwMDcyNTEwNiwwMDAwMDAwMGQ0MWQ4Y2Q5OGYwMGIyMDRlOTgwMDk5OGVjZjg0Mjdl","external_urls":{"spotify":"https://open.spotify.com/playlist/37i9dQZF1DX6RCydf9ytsj"},"id":"37i9dQZF1DX6RCydf9ytsj","href":"https://api.spotify.com/v1/playlists/37i9dQZF1DX6RCydf9ytsj","images":[{"url":"https://i.scdn.co/image/ab67706f00000003a9a72d13a1164e672fe6301f"}],"description":"The decade where New Traditional artists like George Strait, Randy Travis and Alan Jackson dominated the Country scene.","name":"Country's Greatest Hits:  The '80s","collaborative":false,"type":"playlist"},{"tracks":{"total":105,"href":"https://api.spotify.com/v1/playlists/37i9dQZF1DWXi7h4mmmkzD/tracks"},"owner":{"id":"spotify","display_name":"Spotify","external_urls":{"spotify":"https://open.spotify.com/user/spotify"},"href":"https://api.spotify.com/v1/users/spotify","uri":"spotify:user:spotify","type":"user"},"uri":"spotify:playlist:37i9dQZF1DWXi7h4mmmkzD","snapshot_id":"MTU5OTkzMTMwMCwwMDAwMDAyZTAwMDAwMTc0ODM1NjNhYzcwMDAwMDE3MTdlNTY1ZmY1","external_urls":{"spotify":"https://open.spotify.com/playlist/37i9dQZF1DWXi7h4mmmkzD"},"id":"37i9dQZF1DWXi7h4mmmkzD","href":"https://api.spotify.com/v1/playlists/37i9dQZF1DWXi7h4mmmkzD","images":[{"url":"https://i.scdn.co/image/ab67706f00000003ea587c567a887f15f47202a6"}],"description":"Nighttime is the right time for a Kelsea Ballerini Takeover!","name":"Country Nights","collaborative":false,"type":"playlist"},{"tracks":{"total":92,"href":"https://api.spotify.com/v1/playlists/37i9dQZF1DWUgBy0IJPlHq/tracks"},"owner":{"id":"spotify","display_name":"Spotify","external_urls":{"spotify":"https://open.spotify.com/user/spotify"},"href":"https://api.spotify.com/v1/users/spotify","uri":"spotify:user:spotify","type":"user"},"uri":"spotify:playlist:37i9dQZF1DWUgBy0IJPlHq","snapshot_id":"MTYwMDQwMTcyMCwwMDAwMDA2MTAwMDAwMTc0OWY2MDQzYjcwMDAwMDE3NDljM2VkNDRi","external_urls":{"spotify":"https://open.spotify.com/playlist/37i9dQZF1DWUgBy0IJPlHq"},"id":"37i9dQZF1DWUgBy0IJPlHq","href":"https://api.spotify.com/v1/playlists/37i9dQZF1DWUgBy0IJPlHq","images":[{"url":"https://i.scdn.co/image/ab67706f000000030cc83c0888592e5a567a465b"}],"description":"A new shade of Country. Cover: Tyler Childers","name":"Indigo","collaborative":false,"type":"playlist"}]}